Division,WeightClassKg,Place,Name,Team,BodyweightKg,Best3SquatKg,Best3BenchKg,Best3DeadliftKg,TotalKg,Equipment,Event,Sex,BirthDate
Boys,51.71,1,Jose Gutierrez,Fairfield,51.71,170.1,92.99,151.95,415.04,Unlimited,SBD,M,
Boys,51.71,2,Colton Harvell,Fairfield,51.71,142.88,79.38,151.95,374.21,Unlimited,SBD,M,
Boys,51.71,3,Logan Maddox,Dawson,51.71,131.54,72.57,122.47,326.59,Unlimited,SBD,M,
Boys,51.71,4,Brayden Polly,Corsicana Mildred,48.99,111.13,70.31,117.93,299.37,Unlimited,SBD,M,
Boys,51.71,5,Diego Torres,Kerens,50.35,106.59,61.23,102.06,269.89,Unlimited,SBD,M,
Boys,51.71,6,Justin Vu,Grapeland,45.81,97.52,49.9,120.2,267.62,Unlimited,SBD,M,
Boys,51.71,7,Aiden Adams,Fairfield,45.81,106.59,47.63,108.86,263.08,Unlimited,SBD,M,
Boys,51.71,8,Cristian Ontiveros,Crawford,50.8,92.99,56.7,106.59,256.28,Unlimited,SBD,M,
Boys,51.71,9,Cody Crump,Corsicana Mildred,51.71,99.79,45.36,104.33,249.48,Unlimited,SBD,M,
Boys,51.71,10,Austin Beasley,Trinity,46.27,83.91,49.9,102.06,235.87,Unlimited,SBD,M,
Boys,55.79,1,Gage Wendt,Fairfield,55.34,163.29,88.45,151.95,403.7,Unlimited,SBD,M,
Boys,55.79,2,Phoenix Marquez,Trinity,55.79,129.27,77.11,142.88,349.27,Unlimited,SBD,M,
Boys,59.87,1,Eli Castillo,Fairfield,59.87,181.44,129.27,195.04,505.76,Unlimited,SBD,M,
Boys,59.87,2,Ethan Rodgers,Crawford,58.51,147.42,79.38,136.08,362.87,Unlimited,SBD,M,
Boys,59.87,3,Wyatt Bennett,Trinity,59.87,129.27,77.11,136.08,342.46,Unlimited,SBD,M,
Boys,59.87,4,Cody Reed,Pollok Central,57.15,120.2,79.38,129.27,328.85,Unlimited,SBD,M,
Boys,59.87,DQ,Giro Caceres,Trinity,59.42,122.47,,,,Unlimited,SBD,M,
Boys,59.87,DQ,Weslyn Wilkinson,Corsicana Mildred,58.97,145.15,,,,Unlimited,SBD,M,
Boys,67.13,1,Dio Azura,Fairfield,65.77,204.12,122.47,215.46,542.04,Unlimited,SBD,M,
Boys,67.13,2,Davion Johnson,Malakoff,66.68,195.04,122.47,190.51,508.02,Unlimited,SBD,M,
Boys,67.13,3,Rudy Torres,McGregor,67.13,192.78,117.93,195.04,505.76,Unlimited,SBD,M,
Boys,67.13,4,Armondo Charles,Fairfield,65.32,192.78,117.93,185.97,496.68,Unlimited,SBD,M,
Boys,67.13,5,Brian Carter,Mexia,67.13,172.37,104.33,210.92,487.61,Unlimited,SBD,M,
Boys,67.13,6,Erick Rivera,Mexia,65.77,195.04,113.4,174.63,483.08,Unlimited,SBD,M,
Boys,67.13,7,Chris Wossum,Corsicana Mildred,67.13,185.97,113.4,183.7,483.08,Unlimited,SBD,M,
Boys,67.13,8,Ping Heng,Fairfield,65.32,197.31,113.4,165.56,476.27,Unlimited,SBD,M,
Boys,67.13,9,Cristian Martinez,Corsicana,63.05,167.83,102.06,174.63,444.52,Unlimited,SBD,M,
Boys,67.13,10,Tyler Redd,Pollok Central,65.77,161.03,102.06,151.95,415.04,Unlimited,SBD,M,
Boys,67.13,11,Xyler Rumsey,Corsicana Mildred,66.22,151.95,102.06,149.69,403.7,Unlimited,SBD,M,
Boys,67.13,12,Wyatt Firth,Corsicana Mildred,63.96,154.22,102.06,142.88,399.16,Unlimited,SBD,M,
Boys,67.13,13,Derrick Baker,Corsicana Mildred,67.13,149.69,83.91,140.61,374.21,Unlimited,SBD,M,
Boys,74.84,1,Eli Fitzhugh,Corsicana,73.03,208.65,161.03,215.46,585.13,Unlimited,SBD,M,
Boys,74.84,2,Collin Glass,Fairfield,72.12,217.72,142.88,215.46,576.06,Unlimited,SBD,M,
Boys,74.84,3,Brayden May,Kerens,74.39,219.99,158.76,185.97,564.72,Unlimited,SBD,M,
Boys,74.84,4,Nathan Matthews,Pollok Central,72.12,181.44,138.35,195.04,514.83,Unlimited,SBD,M,
Boys,74.84,5,Wyatt Wallace,Malakoff,73.48,204.12,117.93,190.51,512.56,Unlimited,SBD,M,
Boys,74.84,6,Noah Reagler,Mexia,72.12,179.17,122.47,208.65,510.29,Unlimited,SBD,M,
Boys,74.84,7,Adrian Avila,Mexia,71.67,206.38,97.52,192.78,496.68,Unlimited,SBD,M,
Boys,74.84,8,Trenton Harris,Corsicana Mildred,73.03,181.44,120.2,176.9,478.54,Unlimited,SBD,M,
Boys,74.84,9,Justus Savage,Fairfield,73.94,185.97,117.93,172.37,476.27,Unlimited,SBD,M,
Boys,74.84,10,Kaleb Saladino,Kerens,73.94,158.76,108.86,188.24,455.86,Unlimited,SBD,M,
Boys,74.84,11,Jonathan Baker,Trinity,70.31,167.83,97.52,163.29,428.64,Unlimited,SBD,M,
Boys,74.84,12,Wyatt Alexander,Pollok Central,73.03,188.24,90.72,142.88,421.84,Unlimited,SBD,M,
Boys,74.84,13,Jonathan Cockrell,Pollok Central,69.85,151.95,83.91,181.44,417.3,Unlimited,SBD,M,
Boys,82.1,1,Antonio Rodriguez,Kerens,81.65,226.8,183.7,208.65,619.15,Unlimited,SBD,M,
Boys,82.1,2,Darion Weatherall,Fairfield,77.56,244.94,136.08,226.8,607.81,Unlimited,SBD,M,
Boys,82.1,3,Geo Wafer,Corsicana,79.38,219.99,163.29,204.12,587.4,Unlimited,SBD,M,
Boys,82.1,4,Wyatt Robertson,Wortham,79.83,195.04,120.2,195.04,510.29,Unlimited,SBD,M,
Boys,82.1,5,Ethan Althoff,Crawford,78.93,197.31,120.2,188.24,505.76,Unlimited,SBD,M,
Boys,89.81,1,Mason Edwards,Fairfield,85.28,204.12,156.49,195.04,555.65,Unlimited,SBD,M,
Boys,89.81,2,Jacques Cooper,Mexia,88.45,188.24,124.74,235.87,548.85,Unlimited,SBD,M,
Boys,89.81,3,Robert Spencer,Pollok Central,88.45,154.22,74.84,158.76,387.82,Unlimited,SBD,M,
Boys,89.81,4,Cody Butchee,Pollok Central,83.46,124.74,74.84,142.88,342.46,Unlimited,SBD,M,
Boys,89.81,DQ,Emanel Gonzalez,Corsicana,84.82,226.8,151.95,,,Unlimited,SBD,M,
Boys,99.79,1,Jalen Smith,Malakoff,91.17,272.16,145.15,238.14,655.44,Unlimited,SBD,M,
Boys,99.79,2,Ricky Castenada,Fairfield,99.34,217.72,124.74,215.46,557.92,Unlimited,SBD,M,
Boys,99.79,3,Gabe Rudman,Eustace,97.07,208.65,145.15,199.58,553.38,Unlimited,SBD,M,
Boys,99.79,4,Zachary Johnson,Cayuga,97.52,199.58,140.61,190.51,530.7,Unlimited,SBD,M,
Boys,99.79,DQ,Nick McKee,Eustace,98.88,,,,,Unlimited,SBD,M,
Boys,109.77,1,Shawn Meadows,Malakoff,102.06,249.48,165.56,235.87,650.91,Unlimited,SBD,M,
Boys,109.77,2,James Rissmiller,Wortham,102.97,242.67,149.69,219.99,612.35,Unlimited,SBD,M,
Boys,109.77,3,Jonathan Allen,Fairfield,107.5,226.8,170.1,201.85,598.74,Unlimited,SBD,M,
Boys,109.77,4,Jhoel Dionet,Corsicana,107.5,226.8,129.27,235.87,591.94,Unlimited,SBD,M,
Boys,109.77,5,Colby Bracken,Eustace,103.87,219.99,158.76,204.12,582.87,Unlimited,SBD,M,
Boys,109.77,6,Fidel Gonzalez,Corsicana,103.42,213.19,129.27,222.26,564.72,Unlimited,SBD,M,
Boys,109.77,7,Landon Luce,Grapeland,101.15,170.1,74.84,156.49,401.43,Unlimited,SBD,M,
Boys,109.77,8,Lane Olson,Grapeland,104.33,131.54,92.99,147.42,371.95,Unlimited,SBD,M,
Boys,109.77,DQ,Ethan Crump,Corsicana Mildred,105.23,183.7,,,,Unlimited,SBD,M,
Boys,124.74,1,JaMyron Walker,Malakoff,112.04,240.4,136.08,240.4,616.89,Unlimited,SBD,M,
Boys,124.74,2,Max Valencia,Eustace,118.84,240.4,151.95,208.65,601.01,Unlimited,SBD,M,
Boys,124.74,3,Mason Logan,Malakoff,113.85,231.33,142.88,213.19,587.4,Unlimited,SBD,M,
Boys,124.74,4,Kyle Lane,Mexia,113.4,188.24,106.59,188.24,483.08,Unlimited,SBD,M,
Boys,124.74,5,Stryker Jones,Pollok Central,113.85,151.95,68.04,147.42,367.41,Unlimited,SBD,M,
Boys,139.71,1,Xavier West,Mexia,128.82,326.59,145.15,254.01,725.75,Unlimited,SBD,M,
Boys,139.71,2,Jesse Ellington,Grapeland,137.89,247.21,204.12,272.16,723.48,Unlimited,SBD,M,
Boys,139.71,3,Max Gomez,Corsicana,128.37,229.06,165.56,215.46,610.08,Unlimited,SBD,M,
Boys,139.71,4,Michael Wren,Dawson,132.45,226.8,138.35,215.46,580.6,Unlimited,SBD,M,
Boys,139.71,5,Jonathan Faircloth,Trinity,125.19,204.12,108.86,195.04,508.02,Unlimited,SBD,M,
Boys,139.71,6,Issak Velasquez,Crawford,129.73,199.58,129.27,179.17,508.02,Unlimited,SBD,M,
Boys,139.71+,1,Justin Ellington,Grapeland,148.32,272.16,183.7,244.94,700.8,Unlimited,SBD,M,
