Division,WeightClassKg,Place,Name,Team,BodyweightKg,Best3SquatKg,Best3BenchKg,Best3DeadliftKg,TotalKg,Equipment,Event,Sex,BirthDate
Boys,51.71,1,Cason Wilbanks,Decatur,51.35,147.42,92.99,149.69,390.09,Unlimited,SBD,M,
Boys,51.71,2,Rylan Todd,Weatherford,51.66,111.13,65.77,108.86,285.76,Unlimited,SBD,M,
Boys,51.71,3,Jarrett McMaster,Decatur,39.37,70.31,45.36,106.59,222.26,Unlimited,SBD,M,
Boys,55.79,1,Landon Hutton,Peaster,55.47,176.9,115.67,163.29,455.86,Unlimited,SBD,M,
Boys,55.79,2,Bryan Nieto,Decatur,55.25,129.27,95.25,149.69,374.21,Unlimited,SBD,M,
Boys,55.79,3,Cooper Deranger,Argyle,55.34,136.08,68.04,156.49,360.61,Unlimited,SBD,M,
Boys,55.79,4,Noah Marentes,Decatur,55.29,127.01,65.77,147.42,340.19,Unlimited,SBD,M,
Boys,55.79,5,David Godoy,Bridgeport,54.98,124.74,68.04,136.08,328.85,Unlimited,SBD,M,
Boys,59.87,1,Koen Fikes,Weatherford,59.15,151.95,102.06,165.56,419.57,Unlimited,SBD,M,
Boys,59.87,2,Haynes Bloch,Weatherford,59.6,136.08,102.06,151.95,390.09,Unlimited,SBD,M,
Boys,59.87,3,Jalence Kirven,Lake Worth,56.74,102.06,54.43,142.88,299.37,Unlimited,SBD,M,
Boys,67.13,1,Ryan Ekberg,Weatherford,65.73,188.24,149.69,167.83,505.76,Unlimited,SBD,M,
Boys,67.13,2,Andres Aldape,Decatur,64.5,188.24,117.93,174.63,480.81,Unlimited,SBD,M,
Boys,67.13,3,Yaniel DeJesus,Lake Worth,67.13,167.83,113.4,190.51,471.74,Unlimited,SBD,M,
Boys,67.13,4,Lukas Foreman,Peaster,66.77,167.83,136.08,165.56,469.47,Unlimited,SBD,M,
Boys,67.13,5,Cassious Johnson,Mineral Wells,63.78,167.83,102.06,158.76,428.64,Unlimited,SBD,M,
Boys,74.84,1,Jayden Klpers,Peaster,73.44,219.99,140.61,233.6,594.21,Unlimited,SBD,M,
Boys,74.84,2,Cooper McGee,Peaster,73.07,185.97,172.37,197.31,555.65,Unlimited,SBD,M,
Boys,74.84,3,Clayton Rice,Bridgeport,73.53,206.38,102.06,208.65,517.1,Unlimited,SBD,M,
Boys,74.84,4,Alex Routh,Decatur,74.71,197.31,111.13,197.31,505.76,Unlimited,SBD,M,
Boys,74.84,5,Henry Cipher,Peaster,72.39,179.17,122.47,181.44,483.08,Unlimited,SBD,M,
Boys,74.84,6,Preston Mendez,Mineral Wells,71.53,174.63,113.4,181.44,469.47,Unlimited,SBD,M,
Boys,74.84,DQ,Daiton Kriepe,Weatherford,70.26,,,,,Unlimited,SBD,M,
Boys,74.84,DQ,Ceasar Salazar,Lake Worth,74.39,,,,,Unlimited,SBD,M,
Boys,82.1,1,Wyatt Lacy,Peaster,81.74,276.69,181.44,281.23,739.36,Unlimited,SBD,M,
Boys,82.1,2,Bryan Perales,Lake Worth,80.65,231.33,122.47,213.19,566.99,Unlimited,SBD,M,
Boys,82.1,3,Trent Dickey,Decatur,79.97,213.19,129.27,206.38,548.85,Unlimited,SBD,M,
Boys,82.1,4,Shane Elosegui,Decatur,78.24,188.24,117.93,185.97,492.15,Unlimited,SBD,M,
Boys,82.1,5,Stian Tunstroem,Graham,80.33,158.76,90.72,226.8,476.27,Unlimited,SBD,M,
Boys,82.1,DQ,Micah Luna,Bridgeport,75.8,,,,,Unlimited,SBD,M,
Boys,82.1,DQ,Rickey Herrera,Bridgeport,80.29,,,,,Unlimited,SBD,M,
Boys,89.81,1,Danny Munson,Peaster,83.14,258.55,151.95,229.06,639.57,Unlimited,SBD,M,
Boys,89.81,2,Manny Hernandez,Weatherford,89.49,254.01,165.56,204.12,623.69,Unlimited,SBD,M,
Boys,89.81,3,Drake Taylor,Decatur,88.77,215.46,142.88,210.92,569.26,Unlimited,SBD,M,
Boys,89.81,4,Marcus Bryan,Lake Worth,89.63,215.46,129.27,206.38,551.11,Unlimited,SBD,M,
Boys,89.81,5,Ronaldo Aguilar,Decatur,85.91,204.12,122.47,210.92,537.51,Unlimited,SBD,M,
Boys,89.81,6,Chase Aleksick,Peaster,88.86,219.99,124.74,188.24,532.97,Unlimited,SBD,M,
Boys,89.81,7,Cameron Brewer,Weatherford,88.54,215.46,140.61,174.63,530.7,Unlimited,SBD,M,
Boys,89.81,8,Trent Yowell,Mineral Wells,84.96,181.44,124.74,192.78,498.95,Unlimited,SBD,M,
Boys,89.81,9,Zane Miramontes,Decatur,84.41,185.97,81.65,174.63,442.25,Unlimited,SBD,M,
Boys,89.81,DQ,Joey Vasquez,Bridgeport,88.54,,,,,Unlimited,SBD,M,
Boys,99.79,1,Zander Thompson,Weatherford,98.88,251.74,183.7,210.92,646.37,Unlimited,SBD,M,
Boys,99.79,2,Shannon Rogers,Mineral Wells,97.57,231.33,172.37,222.26,625.96,Unlimited,SBD,M,
Boys,99.79,3,Scout Smith,Graham,98.61,249.48,147.42,226.8,623.69,Unlimited,SBD,M,
Boys,99.79,4,Riley Vigil,Mineral Wells,97.43,226.8,163.29,226.8,616.89,Unlimited,SBD,M,
Boys,99.79,5,Brandon Gray,Mineral Wells,97.11,247.21,129.27,238.14,614.62,Unlimited,SBD,M,
Boys,99.79,6,Cedrick Rodriguez,Decatur,98.57,238.14,142.88,226.8,607.81,Unlimited,SBD,M,
Boys,99.79,7,Ray Martinich,Decatur,98.34,229.06,127.01,235.87,591.94,Unlimited,SBD,M,
Boys,99.79,8,Jackson Parris,Peaster,99.56,219.99,161.03,206.38,587.4,Unlimited,SBD,M,
Boys,99.79,9,Carlos Olalde,Graham,97.79,235.87,124.74,210.92,571.53,Unlimited,SBD,M,
Boys,99.79,10,Cal Owen,Argyle,93.49,206.38,131.54,199.58,537.51,Unlimited,SBD,M,
Boys,99.79,DQ,Christian Conyers,Decatur,91.13,,,,,Unlimited,SBD,M,
Boys,99.79,DQ,Adam Moon,Mineral Wells,97.34,,,,,Unlimited,SBD,M,
Boys,109.77,1,John Hurt,Argyle,107.32,272.16,158.76,242.67,673.58,Unlimited,SBD,M,
Boys,109.77,2,Everett Hunt,Argyle,108.91,249.48,147.42,235.87,632.76,Unlimited,SBD,M,
Boys,109.77,3,Thor Johansson,Argyle,107.86,251.74,124.74,238.14,614.62,Unlimited,SBD,M,
Boys,109.77,4,Evan Myrick,Mineral Wells,100.24,201.85,167.83,219.99,589.67,Unlimited,SBD,M,
Boys,109.77,5,Devon Castro,Graham,108.86,249.48,136.08,204.12,589.67,Unlimited,SBD,M,
Boys,109.77,6,Treyson Kramer,Graham,106.96,226.8,113.4,195.04,535.24,Unlimited,SBD,M,
Boys,109.77,7,Odin Johansson,Argyle,105.69,210.92,97.52,217.72,526.17,Unlimited,SBD,M,
Boys,109.77,DQ,Jake Hartjen,Argyle,103.69,,,,,Unlimited,SBD,M,
Boys,109.77,DQ,Michael Andrade,Lake Worth,103.33,,,,,Unlimited,SBD,M,
Boys,109.77,DQ,Kash Martinez,Lake Worth,108.86,,,,,Unlimited,SBD,M,
Boys,124.74,1,Talan Tart,Weatherford,109.95,219.99,181.44,219.99,621.42,Unlimited,SBD,M,
Boys,124.74,2,Kirk Rudoloph,Argyle,118.61,242.67,127.01,217.72,587.4,Unlimited,SBD,M,
Boys,124.74,3,Dichain Perez,Lake Worth,119.98,219.99,138.35,226.8,585.13,Unlimited,SBD,M,
Boys,124.74,4,Hayden Goble,Argyle,117.12,233.6,113.4,222.26,569.26,Unlimited,SBD,M,
Boys,124.74,5,Hunter Bartram,Argyle,110.04,210.92,133.81,219.99,564.72,Unlimited,SBD,M,
Boys,124.74,6,Talon Yowell,Graham,118.75,226.8,151.95,183.7,562.45,Unlimited,SBD,M,
Boys,124.74,7,Joseph Finley,Decatur,112.81,215.46,158.76,176.9,551.11,Unlimited,SBD,M,
Boys,124.74,8,Andrew Ramirez,Graham,115.71,219.99,136.08,192.78,548.85,Unlimited,SBD,M,
Boys,124.74,9,Reese McCrae,Graham,115.26,201.85,124.74,219.99,546.58,Unlimited,SBD,M,
Boys,124.74,DQ,Bennett Coley,Graham,110.27,,,,,Unlimited,SBD,M,
Boys,139.71,1,Brenton Linehan,Weatherford,133.17,254.01,163.29,233.6,650.91,Unlimited,SBD,M,
Boys,139.71,2,Chansyn Bowen,Argyle,131.72,235.87,131.54,244.94,612.35,Unlimited,SBD,M,
Boys,139.71,3,Carson Cortez,Bridgeport,137.89,249.48,149.69,204.12,603.28,Unlimited,SBD,M,
Boys,139.71,DQ,Riley Bostic,Weatherford,129,,,,,Unlimited,SBD,M,
Boys,139.71,DQ,Spencer Johnson,Peaster,135.62,,,,,Unlimited,SBD,M,
Boys,139.71+,1,Kaleb Crawford,Graham,141.07,235.87,142.88,226.8,605.55,Unlimited,SBD,M,
Boys,139.71+,2,Logan Moses,Weatherford,158.8,213.19,163.29,181.44,557.92,Unlimited,SBD,M,
Boys,,NS,Braxton Smith,Lake Worth,,,,,,Unlimited,SBD,M,
