Division,WeightClassKg,Place,Name,Team,BodyweightKg,Best3SquatKg,Best3BenchKg,Best3DeadliftKg,TotalKg,Equipment,Event,Sex,BirthDate
Boys,51.71,1,Zaiden Olvera,Dickinson,49.58,156.49,111.13,154.22,421.84,Unlimited,SBD,M,
Boys,51.71,2,Carmine Benavides,Texas City,51.62,158.76,97.52,147.42,403.7,Unlimited,SBD,M,
Boys,51.71,3,Kam Rodriguez,Houston Spring Woods,49.99,149.69,83.91,151.95,385.55,Unlimited,SBD,M,
Boys,51.71,4,Logan Saltzman,Port Neches-Groves,50.98,145.15,72.57,158.76,376.48,Unlimited,SBD,M,
Boys,51.71,5,Daniel Wetz,Conroe Caney Creek,51.53,142.88,79.38,142.88,365.14,Unlimited,SBD,M,
Boys,51.71,6,Joseph Benavides,Dayton,50.35,113.4,65.77,136.08,315.25,Unlimited,SBD,M,
Boys,51.71,7,Dustin Burch,Texas City,50.8,102.06,77.11,136.08,315.25,Unlimited,SBD,M,
Boys,51.71,8,John Gonzales,Baytown Lee,48.81,117.93,79.38,113.4,310.71,Unlimited,SBD,M,
Boys,51.71,9,Matthew Jug,Conroe Oak Ridge,50.89,117.93,68.04,122.47,308.44,Unlimited,SBD,M,
Boys,51.71,10,Connor Lamar,Waller,49.8,122.47,65.77,113.4,301.64,Unlimited,SBD,M,
Boys,51.71,11,Adrian Maya,Pasadena South Houston,50.17,111.13,79.38,111.13,301.64,Unlimited,SBD,M,
Boys,51.71,12,Donoven Mendoza,Conroe Grand Oaks,50.62,111.13,65.77,108.86,285.76,Unlimited,SBD,M,
Boys,51.71,DQ,Grayson Morris,Clute Brazoswood,49.17,145.15,,,,Unlimited,SBD,M,
Boys,55.79,1,Bryce Wiley,Conroe The Woodlands,55.43,183.7,106.59,188.24,478.54,Unlimited,SBD,M,
Boys,55.79,2,Yves Pham,Alvin Shadow Creek,54.98,161.03,102.06,190.51,453.59,Unlimited,SBD,M,
Boys,55.79,3,Israel Reyes,Dickinson,55.43,163.29,92.99,161.03,417.3,Unlimited,SBD,M,
Boys,55.79,4,Mitchel Escagne,Alvin,55.7,142.88,102.06,167.83,412.77,Unlimited,SBD,M,
Boys,55.79,5,Blayne Means,Clute Brazoswood,55.7,154.22,97.52,151.95,403.7,Unlimited,SBD,M,
Boys,55.79,6,Juan Guerrero,Channelview,54.61,142.88,88.45,154.22,385.55,Unlimited,SBD,M,
Boys,55.79,7,Ander Herrasti,Conroe The Woodlands,55.07,151.95,88.45,142.88,383.29,Unlimited,SBD,M,
Boys,55.79,8,Landon Arnold,Conroe The Woodlands,55.34,142.88,86.18,147.42,376.48,Unlimited,SBD,M,
Boys,55.79,9,Johnathan Miller,Willis,54.88,142.88,86.18,145.15,374.21,Unlimited,SBD,M,
Boys,55.79,DQ,Seven Petteway,Clute Brazoswood,55.25,145.15,,,,Unlimited,SBD,M,
Boys,55.79,DQ,Carmine Normand,Conroe Grand Oaks,54.34,145.15,99.79,,,Unlimited,SBD,M,
Boys,59.87,1,Ismael Hernandez,Pasadena South Houston,58.15,217.72,102.06,244.94,564.72,Unlimited,SBD,M,
Boys,59.87,2,Omar Salinas,League City Clear Creek,58.88,215.46,133.81,206.38,555.65,Unlimited,SBD,M,
Boys,59.87,3,Tank Nguyen,Conroe,59.24,219.99,124.74,206.38,551.11,Unlimited,SBD,M,
Boys,59.87,4,Steven Tran,Houston Aldine,59.33,181.44,97.52,219.99,498.95,Unlimited,SBD,M,
Boys,59.87,5,Bralyn Harris,Texas City,59.42,192.78,90.72,215.46,498.95,Unlimited,SBD,M,
Boys,59.87,6,Trent Delahoussaye,Port Neches-Groves,59.33,172.37,129.27,188.24,489.88,Unlimited,SBD,M,
Boys,59.87,7,Santi Guerrero,Conroe The Woodlands,58.97,195.04,117.93,165.56,478.54,Unlimited,SBD,M,
Boys,59.87,8,Nicholas Olivo,Houston Spring Woods,59.42,172.37,104.33,179.17,455.86,Unlimited,SBD,M,
Boys,59.87,9,Donnie Statham,Conroe,59.06,183.7,95.25,172.37,451.32,Unlimited,SBD,M,
Boys,59.87,10,Reynaldo Moreno,Clute Brazoswood,59.78,158.76,97.52,167.83,424.11,Unlimited,SBD,M,
Boys,59.87,11,Joseph Berry,Houston Stratford,59.33,151.95,102.06,165.56,419.57,Unlimited,SBD,M,
Boys,59.87,DQ,Pistol Chapa,Houston Spring Woods,59.87,181.44,95.25,,,Unlimited,SBD,M,
Boys,67.13,1,Aaron Arratia,Dickinson,67.13,283.5,158.76,238.14,680.39,Unlimited,SBD,M,
Boys,67.13,2,Macoy Noack,Conroe The Woodlands,66.5,258.55,142.88,206.38,607.81,Unlimited,SBD,M,
Boys,67.13,3,Riley Fougeron,Conroe Woodlands College Park,65.68,219.99,145.15,224.53,589.67,Unlimited,SBD,M,
Boys,67.13,4,Elite Vu,Alvin Shadow Creek,67.04,215.46,149.69,219.99,585.13,Unlimited,SBD,M,
Boys,67.13,5,Tri Mai,Dickinson,65.41,231.33,138.35,208.65,578.33,Unlimited,SBD,M,
Boys,67.13,6,Miguel Garcia,Waller,66.13,238.14,111.13,229.06,578.33,Unlimited,SBD,M,
Boys,67.13,7,Grayson Weeks,Dayton,66.77,208.65,131.54,238.14,578.33,Unlimited,SBD,M,
Boys,67.13,8,Enzo Altamirano,Conroe,66.59,229.06,136.08,208.65,573.79,Unlimited,SBD,M,
Boys,67.13,9,Ajay Adharsan,Nederland,65.68,201.85,136.08,233.6,571.53,Unlimited,SBD,M,
Boys,67.13,10,Caleb Henderson,Conroe Oak Ridge,66.59,215.46,170.1,183.7,569.26,Unlimited,SBD,M,
Boys,67.13,11,Jesus Alaniz,Alvin,66.5,226.8,120.2,219.99,566.99,Unlimited,SBD,M,
Boys,67.13,12,Jason Kimberly,Montgomery,65.86,206.38,113.4,224.53,544.31,Unlimited,SBD,M,
Boys,74.84,1,Caysen Guerra,Nederland,74.75,263.08,176.9,249.48,689.46,Unlimited,SBD,M,
Boys,74.84,2,Alex Hunt,Conroe Woodlands College Park,71.85,254.01,179.17,247.21,680.39,Unlimited,SBD,M,
Boys,74.84,3,Chris Moctezuma,Santa Fe,74.12,265.35,154.22,215.46,635.03,Unlimited,SBD,M,
Boys,74.84,4,Kalen Chometsky,Conroe The Woodlands,71.94,254.01,156.49,213.19,623.69,Unlimited,SBD,M,
Boys,74.84,5,Colton Olsen,Conroe Oak Ridge,74.48,247.21,133.81,233.6,614.62,Unlimited,SBD,M,
Boys,74.84,6,Bryce Moore,Conroe Grand Oaks,74.21,226.8,136.08,238.14,601.01,Unlimited,SBD,M,
Boys,74.84,7,Kaiden Warren,Magnolia West,72.12,247.21,142.88,206.38,596.47,Unlimited,SBD,M,
Boys,74.84,8,Kaden McMilan,Montgomery,69.94,219.99,165.56,208.65,594.21,Unlimited,SBD,M,
Boys,74.84,9,Tristen Munoz,Dickinson,73.12,235.87,142.88,215.46,594.21,Unlimited,SBD,M,
Boys,74.84,DQ,David Dinh,Beaumont West Brook,73.39,,,,,Unlimited,SBD,M,
Boys,74.84,DQ,Jaren Casas,Alvin,73.75,226.8,136.08,,,Unlimited,SBD,M,
Boys,74.84,DQ,Cesar Cantu,Willis,72.48,278.96,151.95,,,Unlimited,SBD,M,
Boys,82.1,1,Cayden Clayton,Conroe The Woodlands,81.01,319.78,185.97,258.55,764.3,Unlimited,SBD,M,
Boys,82.1,2,Jacob Gober,Willis,80.65,297.1,192.78,254.01,743.89,Unlimited,SBD,M,
Boys,82.1,3,Jesse Rodgers,Conroe Grand Oaks,82.01,267.62,210.92,260.82,739.36,Unlimited,SBD,M,
Boys,82.1,4,Jayden Flores,Pasadena South Houston,79.29,294.84,165.56,265.35,725.75,Unlimited,SBD,M,
Boys,82.1,5,Ethan Haynes,Willis,80.29,319.78,156.49,249.48,725.75,Unlimited,SBD,M,
Boys,82.1,6,Nate Morris,Conroe,81.47,288.03,156.49,265.35,709.87,Unlimited,SBD,M,
Boys,82.1,7,Brooks Woodruff,Conroe The Woodlands,80.92,272.16,165.56,254.01,691.73,Unlimited,SBD,M,
Boys,82.1,8,Angel Martinez,Baytown Sterling,79.02,281.23,163.29,242.67,687.19,Unlimited,SBD,M,
Boys,82.1,9,Braden McEldowney,Conroe Grand Oaks,80.47,247.21,156.49,219.99,623.69,Unlimited,SBD,M,
Boys,82.1,10,Johnaton Haywood,Katy Mayde Creek,80.29,231.33,147.42,233.6,612.35,Unlimited,SBD,M,
Boys,82.1,11,Orlando Barrera,Conroe,77.47,265.35,120.2,217.72,603.28,Unlimited,SBD,M,
Boys,82.1,12,Carlos Ruiz,New Caney Porter,81.47,233.6,138.35,222.26,594.21,Unlimited,SBD,M,
Boys,89.81,1,Garrett Loar,Willis,88.54,335.66,195.04,272.16,802.86,Unlimited,SBD,M,
Boys,89.81,2,Zach Lunn,Conroe Grand Oaks,87.54,276.69,158.76,247.21,682.66,Unlimited,SBD,M,
Boys,89.81,3,Ian Pippins-Moon,Magnolia,87.82,285.76,136.08,249.48,671.32,Unlimited,SBD,M,
Boys,89.81,4,Fabian Garza,Pasadena Memorial,87.36,272.16,167.83,229.06,669.05,Unlimited,SBD,M,
Boys,89.81,5,Efren Figueroa,Alvin Shadow Creek,87.36,272.16,147.42,247.21,666.78,Unlimited,SBD,M,
Boys,89.81,6,Hudson Windsor,Pearland Dawson,88,272.16,158.76,233.6,664.51,Unlimited,SBD,M,
Boys,89.81,7,Levi Fontenot,Crosby,88.54,272.16,124.74,260.82,657.71,Unlimited,SBD,M,
Boys,89.81,8,Francisco Tirado,Magnolia,88.72,258.55,167.83,215.46,641.83,Unlimited,SBD,M,
Boys,89.81,9,Tait Knudsen,Conroe Woodlands College Park,86.27,263.08,147.42,224.53,635.03,Unlimited,SBD,M,
Boys,89.81,10,Braeden White,Dayton,87.63,231.33,138.35,265.35,635.03,Unlimited,SBD,M,
Boys,89.81,11,Kadyn Hodson,Alvin,87.63,226.8,147.42,226.8,601.01,Unlimited,SBD,M,
Boys,89.81,DQ,Camryn Jones,Dickinson,86.64,249.48,,,,Unlimited,SBD,M,
Boys,99.79,1,Kaeden Cavnar,Conroe The Woodlands,96.52,294.84,190.51,256.28,741.62,Unlimited,SBD,M,
Boys,99.79,2,Jay Reroma,Dickinson,99.2,288.03,199.58,240.4,728.02,Unlimited,SBD,M,
Boys,99.79,3,Jackson Patchell,Conroe The Woodlands,94.53,263.08,142.88,278.96,684.92,Unlimited,SBD,M,
Boys,99.79,4,Jacob Baez,Alvin,98.7,276.69,172.37,229.06,678.12,Unlimited,SBD,M,
Boys,99.79,5,Sutton Goss,Magnolia,93.53,254.01,156.49,265.35,675.85,Unlimited,SBD,M,
Boys,99.79,6,Cristian Gonzales,Houston Spring Woods,97.16,260.82,156.49,251.74,669.05,Unlimited,SBD,M,
Boys,99.79,7,Bryce Leal,Santa Fe,95.07,263.08,161.03,233.6,657.71,Unlimited,SBD,M,
Boys,99.79,8,Austen Hernandez,Willis,95.71,278.96,156.49,222.26,657.71,Unlimited,SBD,M,
Boys,99.79,9,Roy Ramirez,Clute Brazoswood,98.88,242.67,156.49,258.55,657.71,Unlimited,SBD,M,
Boys,99.79,10,Nicholas Robinson,Manvel,92.53,258.55,133.81,247.21,639.57,Unlimited,SBD,M,
Boys,99.79,DQ,Edgar Vite,Houston Spring Woods,97.79,269.89,142.88,,,Unlimited,SBD,M,
Boys,99.79,DQ,Carson Schottie,Conroe,97.79,249.48,165.56,,,Unlimited,SBD,M,
Boys,109.77,1,Maxx Vazquez,Dickinson,109.68,326.59,217.72,222.26,766.57,Unlimited,SBD,M,
Boys,109.77,2,Tyler Willis,Katy,108.32,285.76,210.92,256.28,752.96,Unlimited,SBD,M,
Boys,109.77,3,Lance Willingham,Dayton,106.59,278.96,197.31,274.42,750.7,Unlimited,SBD,M,
Boys,109.77,4,Nick Perez,Conroe Oak Ridge,107.77,322.05,192.78,233.6,748.43,Unlimited,SBD,M,
Boys,109.77,5,Adolfo Cruz,Dickinson,106.68,290.3,199.58,233.6,723.48,Unlimited,SBD,M,
Boys,109.77,6,Andre McDaniel,Alvin Shadow Creek,102.51,281.23,147.42,251.74,680.39,Unlimited,SBD,M,
Boys,109.77,7,Luke Cannon,Conroe,105.78,265.35,170.1,244.94,680.39,Unlimited,SBD,M,
Boys,109.77,8,Mikie Thompson,Conroe Oak Ridge,108.32,276.69,165.56,238.14,680.39,Unlimited,SBD,M,
Boys,109.77,9,Nate Klie,Conroe The Woodlands,104.69,269.89,158.76,217.72,646.37,Unlimited,SBD,M,
Boys,109.77,10,Colton Francis,Conroe Oak Ridge,105.23,265.35,151.95,222.26,639.57,Unlimited,SBD,M,
Boys,109.77,11,Gavin Ramirez,Crosby,107.77,272.16,149.69,215.46,637.3,Unlimited,SBD,M,
Boys,109.77,DQ,Travis Kopeck,Conroe Grand Oaks,105.05,267.62,,,,Unlimited,SBD,M,
Boys,124.74,1,Cooper Hydock,Montgomery,118.21,294.84,208.65,254.01,757.5,Unlimited,SBD,M,
Boys,124.74,2,Caleb Fletcher,Willis,120.29,317.51,199.58,240.4,757.5,Unlimited,SBD,M,
Boys,124.74,3,Larry Brooks,Manvel,112.76,308.44,158.76,269.89,737.09,Unlimited,SBD,M,
Boys,124.74,4,Albert Gonzales,Houston Northbrook,120.84,278.96,185.97,265.35,730.28,Unlimited,SBD,M,
Boys,124.74,5,Brandon Mathis,Conroe,117.66,288.03,208.65,222.26,718.94,Unlimited,SBD,M,
Boys,124.74,6,Peyton Robinson,Conroe Woodlands College Park,118.21,301.64,172.37,235.87,709.87,Unlimited,SBD,M,
Boys,124.74,7,Marek Montgomery,Montgomery,114.12,281.23,183.7,238.14,703.07,Unlimited,SBD,M,
Boys,124.74,8,Kaden Schirck,Santa Fe,114.85,274.42,183.7,244.94,703.07,Unlimited,SBD,M,
Boys,124.74,9,Emilio Villa,Dayton,116.3,263.08,188.24,251.74,703.07,Unlimited,SBD,M,
Boys,124.74,10,Christian Santiago,New Caney,121.47,260.82,151.95,290.3,703.07,Unlimited,SBD,M,
Boys,124.74,11,Aiden Hime,Magnolia,122.74,254.01,185.97,244.94,684.92,Unlimited,SBD,M,
Boys,124.74,DQ,Leighton Geiman,Waller,122.65,,,,,Unlimited,SBD,M,
Boys,139.71,1,Kyle Suggs,Alvin,127.28,326.59,190.51,254.01,771.11,Unlimited,SBD,M,
Boys,139.71,2,KeShawn Jones,League City Clear Creek,130.54,317.51,176.9,247.21,741.62,Unlimited,SBD,M,
Boys,139.71,3,Rema Nwosu,Conroe Woodlands College Park,133.81,299.37,188.24,249.48,737.09,Unlimited,SBD,M,
Boys,139.71,4,Aiden Kaplan,Montgomery Lake Creek,127.1,278.96,197.31,251.74,728.02,Unlimited,SBD,M,
Boys,139.71,5,Anthony Lozano,Texas City,131.81,299.37,183.7,242.67,725.75,Unlimited,SBD,M,
Boys,139.71,6,Marc Pedraza,Pearland,133.99,299.37,185.97,240.4,725.75,Unlimited,SBD,M,
Boys,139.71,7,Logan Hilton,Willis,125.01,283.5,183.7,224.53,691.73,Unlimited,SBD,M,
Boys,139.71,8,Luke Mora,La Porte,134.17,274.42,170.1,244.94,689.46,Unlimited,SBD,M,
Boys,139.71,9,Josh Ashton,Conroe The Woodlands,132.63,290.3,170.1,226.8,687.19,Unlimited,SBD,M,
Boys,139.71,10,Connor Moomaw,Conroe The Woodlands,126.37,283.5,165.56,217.72,666.78,Unlimited,SBD,M,
Boys,139.71,11,Toby Argo,Pearland,124.92,272.16,165.56,222.26,659.98,Unlimited,SBD,M,
Boys,139.71,DQ,Jonathan Price,Katy Mayde Creek,130.36,242.67,,,,Unlimited,SBD,M,
Boys,139.71+,1,Aden Boutte,Channelview,155.04,317.51,181.44,281.23,780.18,Unlimited,SBD,M,
Boys,139.71+,2,Levi Zaunbrecher,Conroe The Woodlands,158.21,285.76,167.83,251.74,705.34,Unlimited,SBD,M,
Boys,139.71+,3,Jonthan Martinez,Dickinson,139.98,285.76,158.76,217.72,662.24,Unlimited,SBD,M,
Boys,139.71+,4,Kevin Jackson,Beaumont West Brook,174.81,283.5,133.81,233.6,650.91,Unlimited,SBD,M,
Boys,139.71+,5,Cade Ingram,Clute Brazoswood,142.7,274.42,154.22,199.58,628.23,Unlimited,SBD,M,
Boys,139.71+,6,Colby Rao,Pearland,145.51,226.8,165.56,231.33,623.69,Unlimited,SBD,M,
Boys,139.71+,7,Diego Gomez,Conroe Grand Oaks,148.05,235.87,131.54,233.6,601.01,Unlimited,SBD,M,
Boys,139.71+,8,Carson Robinson,Montgomery,143.52,210.92,158.76,215.46,585.13,Unlimited,SBD,M,
Boys,139.71+,9,Aanson Johnson,Crosby,163.38,226.8,142.88,204.12,573.79,Unlimited,SBD,M,
Boys,139.71+,DQ,Siaosi Patton,Houston Spring Woods,172.55,256.28,138.35,,,Unlimited,SBD,M,
Boys,139.71+,DQ,Tyler Jones,Texas City,158.85,260.82,149.69,,,Unlimited,SBD,M,
Boys,139.71+,DQ,Adrian Arellano,Baytown Goose Creek Memorial,156.4,283.5,172.37,,,Unlimited,SBD,M,
