Division,WeightClassKg,Place,Name,Team,BodyweightKg,Best3SquatKg,Best3BenchKg,Best3DeadliftKg,TotalKg,Equipment,Event,Sex,BirthDate
Boys,51.71,1,Sergio Perales,Midland Legacy,51.44,147.42,86.18,167.83,401.43,Unlimited,SBD,M,
Boys,51.71,2,Quan Tran,Midland Legacy,51.71,138.35,90.72,142.88,371.95,Unlimited,SBD,M,
Boys,51.71,3,Hunter Outlaw,Midland Greenwood,51.71,140.61,90.72,140.61,371.95,Unlimited,SBD,M,
Boys,51.71,4,Aiden Gonzales,Andrews,50.71,131.54,77.11,140.61,349.27,Unlimited,SBD,M,
Boys,51.71,5,Caden Reynoso,Big Spring,49.17,102.06,63.5,120.2,285.76,Unlimited,SBD,M,
Boys,51.71,6,Jaiden Jackson,Monahans,45.81,95.25,54.43,102.06,251.74,Unlimited,SBD,M,
Boys,55.79,1,Jeremiah Talamantes,Garden City,54.98,136.08,72.57,147.42,356.07,Unlimited,SBD,M,
Boys,55.79,2,Jeremiah Roman,Midland Legacy,53.16,136.08,74.84,142.88,353.8,Unlimited,SBD,M,
Boys,55.79,3,Jacob Nollola,Stanton,53.52,129.27,74.84,131.54,335.66,Unlimited,SBD,M,
Boys,55.79,4,Obed Lujan,Odessa,54.43,106.59,61.23,122.47,290.3,Unlimited,SBD,M,
Boys,55.79,DQ,Michael Ramirez,Big Spring,55.43,108.86,74.84,,,Unlimited,SBD,M,
Boys,55.79,DQ,Josiah Cavazos,Big Spring,55.25,,,,,Unlimited,SBD,M,
Boys,59.87,1,Talon Cavazos,Big Spring,59.15,156.49,97.52,199.58,453.59,Unlimited,SBD,M,
Boys,59.87,2,Xander Sanchez,Midland Legacy,59.87,163.29,88.45,181.44,433.18,Unlimited,SBD,M,
Boys,59.87,3,Rudy Salcido,Odessa,59.87,174.63,74.84,151.95,401.43,Unlimited,SBD,M,
Boys,59.87,4,Casen Moore,Monahans,59.06,133.81,88.45,147.42,369.68,Unlimited,SBD,M,
Boys,67.13,1,Leeland Ibarra,Fort Stockton,64.86,204.12,111.13,185.97,501.22,Unlimited,SBD,M,
Boys,67.13,2,Gabriel Alaniz,Midland Legacy,62.6,190.51,90.72,188.24,469.47,Unlimited,SBD,M,
Boys,67.13,3,Christian Dominguez,Fort Stockton,65.05,174.63,104.33,181.44,460.4,Unlimited,SBD,M,
Boys,67.13,4,Angel Sosa,Midland Greenwood,65.5,185.97,104.33,163.29,453.59,Unlimited,SBD,M,
Boys,67.13,5,Parker Perry,Midland Greenwood,65.23,147.42,97.52,154.22,399.16,Unlimited,SBD,M,
Boys,67.13,6,Luke Stovall,Stanton,66.13,158.76,70.31,151.95,381.02,Unlimited,SBD,M,
Boys,67.13,7,Alex Church,Stanton,64.14,136.08,70.31,136.08,342.46,Unlimited,SBD,M,
Boys,67.13,8,Jeremiah Rivera,Fort Stockton,60.15,92.99,58.97,97.52,249.48,Unlimited,SBD,M,
Boys,74.84,1,Makinly Espinoza,Andrews,74.03,226.8,136.08,213.19,576.06,Unlimited,SBD,M,
Boys,74.84,2,Dewey Bingham,Midland Greenwood,73.94,206.38,136.08,174.63,517.1,Unlimited,SBD,M,
Boys,74.84,3,Jack Hamby,Big Spring,74.75,188.24,120.2,195.04,503.49,Unlimited,SBD,M,
Boys,74.84,4,Kameron Isemann,Stanton,70.76,181.44,113.4,204.12,498.95,Unlimited,SBD,M,
Boys,82.1,1,Brandon Salazar,Midland Greenwood,79.56,272.16,156.49,224.53,653.17,Unlimited,SBD,M,
Boys,82.1,2,Tristen Taylor,Andrews,81.56,219.99,136.08,217.72,573.79,Unlimited,SBD,M,
Boys,82.1,3,Jake Benedict,Stanton,81.37,215.46,113.4,199.58,528.44,Unlimited,SBD,M,
Boys,82.1,4,Carlos Echeverria,Andrews,80.74,185.97,113.4,185.97,485.34,Unlimited,SBD,M,
Boys,82.1,5,Thayne Gernentz,Stanton,82.1,181.44,111.13,170.1,462.66,Unlimited,SBD,M,
Boys,82.1,6,Esteban Skiles,Odessa,81.47,145.15,104.33,145.15,394.63,Unlimited,SBD,M,
Boys,82.1,7,Daniel Perez,Fort Stockton,80.74,133.81,90.72,154.22,378.75,Unlimited,SBD,M,
Boys,82.1,8,Rylan Cypert,Garden City,80.01,129.27,83.91,145.15,358.34,Unlimited,SBD,M,
Boys,82.1,9,Rito Sauceda,Fort Stockton,78.93,113.4,58.97,120.2,292.57,Unlimited,SBD,M,
Boys,82.1,DQ,Carter Sanchez,Midland Greenwood,79.56,195.04,133.81,,,Unlimited,SBD,M,
Boys,89.81,1,Connor McCrary,Andrews,87.54,285.76,179.17,274.42,739.36,Unlimited,SBD,M,
Boys,89.81,2,Tyson Valenzuela,Andrews,88.54,233.6,158.76,242.67,635.03,Unlimited,SBD,M,
Boys,89.81,3,Jesus Montes,Odessa,88.99,201.85,147.42,199.58,548.85,Unlimited,SBD,M,
Boys,89.81,4,Lane Thomas,Andrews,86.36,190.51,115.67,172.37,478.54,Unlimited,SBD,M,
Boys,89.81,5,Gunner Hatch,Monahans,82.74,136.08,102.06,149.69,387.82,Unlimited,SBD,M,
Boys,89.81,6,Braden Barnett,Stanton,84.46,140.61,102.06,145.15,387.82,Unlimited,SBD,M,
Boys,99.79,1,Adrian Reza,Midland Greenwood,99.7,240.4,185.97,226.8,653.17,Unlimited,SBD,M,
Boys,99.79,2,Max Pierce,Andrews,97.43,249.48,158.76,195.04,603.28,Unlimited,SBD,M,
Boys,99.79,3,Julian Varela,Andrews,98.52,256.28,151.95,188.24,596.47,Unlimited,SBD,M,
Boys,99.79,4,Lash Caldwell,Monahans,97.61,231.33,124.74,231.33,587.4,Unlimited,SBD,M,
Boys,99.79,5,Roberto Almazan,Garden City,97.7,197.31,117.93,199.58,514.83,Unlimited,SBD,M,
Boys,99.79,6,Riley Mabry,Stanton,98.16,217.72,97.52,170.1,485.34,Unlimited,SBD,M,
Boys,99.79,7,Adyn Tristan,Big Spring,99.61,181.44,111.13,172.37,464.93,Unlimited,SBD,M,
Boys,99.79,DQ,Jonas Gonzales,Andrews,95.16,226.8,142.88,,,Unlimited,SBD,M,
Boys,99.79,DQ,Braden Chapa,Stanton,93.8,142.88,,,,Unlimited,SBD,M,
Boys,99.79,DQ,Jairo Montes,Odessa,92.71,222.26,,,,Unlimited,SBD,M,
Boys,99.79,DQ,Nathan Balcazar,Garden City,90.45,147.42,129.27,,,Unlimited,SBD,M,
Boys,99.79,DQ,Carlos Barraza,Midland Greenwood,99.43,247.21,,,,Unlimited,SBD,M,
Boys,99.79,DQ,Abrian Juarez,Monahans,99.79,183.7,111.13,,,Unlimited,SBD,M,
Boys,109.77,1,Evis Bobey Munoz,Midland Legacy,104.33,278.96,170.1,235.87,684.92,Unlimited,SBD,M,
Boys,109.77,2,Izack Villasenor,Midland Legacy,106.05,247.21,156.49,247.21,650.91,Unlimited,SBD,M,
Boys,109.77,3,Terry Ojopagogo,Midland Legacy,106.87,249.48,167.83,226.8,644.1,Unlimited,SBD,M,
Boys,109.77,4,Jonathan Taylor,Midland Legacy,106.96,233.6,181.44,226.8,641.83,Unlimited,SBD,M,
Boys,109.77,5,Collin Byrne,Midland Legacy,105.96,215.46,174.63,215.46,605.55,Unlimited,SBD,M,
Boys,109.77,6,Reid Turney,Stanton,109.5,210.92,127.01,161.03,498.95,Unlimited,SBD,M,
Boys,109.77,7,Caleb Rodriguez,Monahans,101.6,170.1,117.93,183.7,471.74,Unlimited,SBD,M,
Boys,124.74,1,Chad Tripp,Midland Legacy,123.1,328.85,206.38,229.06,764.3,Unlimited,SBD,M,
Boys,124.74,2,Garrett Dalton,Midland Greenwood,121.56,312.98,161.03,215.46,689.46,Unlimited,SBD,M,
Boys,124.74,3,Damian Dominguez,Odessa,115.76,272.16,145.15,226.8,644.1,Unlimited,SBD,M,
Boys,124.74,4,Carlos Salcido,Stanton,117.21,267.62,129.27,215.46,612.35,Unlimited,SBD,M,
Boys,124.74,5,Dylan Carr,Midland Greenwood,110.5,238.14,165.56,197.31,601.01,Unlimited,SBD,M,
Boys,124.74,6,Cash Flores,Monahans,112.85,224.53,154.22,201.85,580.6,Unlimited,SBD,M,
Boys,124.74,7,Cooper Gernentz,Stanton,120.47,226.8,147.42,206.38,580.6,Unlimited,SBD,M,
Boys,124.74,8,Josiah New,Big Spring,115.3,215.46,113.4,210.92,539.77,Unlimited,SBD,M,
Boys,124.74,9,Colten Armeida,Midland Greenwood,122.92,197.31,113.4,192.78,503.49,Unlimited,SBD,M,
Boys,124.74,DQ,Jayden Armstrong,Fort Stockton,114.4,145.15,,,,Unlimited,SBD,M,
Boys,124.74,DQ,Caleb Feitshans,Monahans,122.02,181.44,124.74,,,Unlimited,SBD,M,
Boys,139.71,1,Zadrian Washington,Big Spring,126.92,208.65,136.08,222.26,566.99,Unlimited,SBD,M,
Boys,139.71,2,Neddie Delgado,Midland Greenwood,136.26,138.35,92.99,140.61,371.95,Unlimited,SBD,M,
Boys,139.71,DQ,Austin Reyes,Midland Legacy,133.45,210.92,,,,Unlimited,SBD,M,
Boys,139.71+,DQ,Brady Matison,Midland Greenwood,145.97,142.88,,,,Unlimited,SBD,M,
Boys,,NS,Tofer Baker,Garden City,,,,,,Unlimited,SBD,M,
Boys,,NS,Karson Lowery,Garden City,,,,,,Unlimited,SBD,M,
Boys,,NS,Kristian Howard,Odessa,,,,,,Unlimited,SBD,M,
Boys,,NS,Aiden Orona,Stanton,,,,,,Unlimited,SBD,M,
Boys,,NS,Joel Avitia,Odessa,,,,,,Unlimited,SBD,M,
Boys,,NS,Jacob Roberts,Andrews,,,,,,Unlimited,SBD,M,
Boys,,NS,Andrew Martinez,Andrews,,,,,,Unlimited,SBD,M,
Boys,,NS,Drew Valbuena,Big Spring,,,,,,Unlimited,SBD,M,
Boys,,NS,Matthew Sandoval,Big Spring,,,,,,Unlimited,SBD,M,
Boys,,NS,Cain Leyva,Monahans,,,,,,Unlimited,SBD,M,
Boys,,NS,Seth Vargas,Monahans,,,,,,Unlimited,SBD,M,
