Division,WeightClassKg,Place,Name,Team,BodyweightKg,Best3SquatKg,Best3BenchKg,Best3DeadliftKg,TotalKg,Equipment,Event,Sex,BirthDate
Boys,51.71,1,Christian Nas,Perryton,51.62,181.44,92.99,158.76,433.18,Unlimited,SBD,M,
Boys,51.71,2,Lucas McNeely,Monahans,51.07,151.95,102.06,156.49,410.5,Unlimited,SBD,M,
Boys,51.71,3,Edgar Ramos,Perryton,50.71,158.76,83.91,147.42,390.09,Unlimited,SBD,M,
Boys,51.71,4,Hunter Outlaw,Midland Greenwood,51.17,140.61,90.72,140.61,371.95,Unlimited,SBD,M,
Boys,51.71,5,Santiago Monreal,Perryton,51.26,149.69,74.84,142.88,367.41,Unlimited,SBD,M,
Boys,51.71,6,Orlando Mendoza,Perryton,51.53,147.42,79.38,136.08,362.87,Unlimited,SBD,M,
Boys,51.71,7,Aiden Gonzales,Andrews,50.8,133.81,83.91,142.88,360.61,Unlimited,SBD,M,
Boys,51.71,8,Xavier Sandoval,Canyon Randall,51.35,113.4,102.06,136.08,351.53,Unlimited,SBD,M,
Boys,51.71,9,Preston Jhagroo,Andrews,46.72,138.35,65.77,113.4,317.51,Unlimited,SBD,M,
Boys,51.71,10,Reuben Cerna,Pecos,51.44,106.59,70.31,131.54,308.44,Unlimited,SBD,M,
Boys,51.71,11,Ricardo Barron,Perryton,50.71,115.67,72.57,117.93,306.17,Unlimited,SBD,M,
Boys,51.71,12,Cayden Reynoso,Big Spring,49.53,111.13,72.57,120.2,303.91,Unlimited,SBD,M,
Boys,55.79,1,Jonathan Becerril,Perryton,55.25,240.4,136.08,217.72,594.21,Unlimited,SBD,M,
Boys,55.79,2,Geo Ochoa,Perryton,55.25,185.97,111.13,174.63,471.74,Unlimited,SBD,M,
Boys,55.79,3,Josh Lawrence,Dumas,55.25,188.24,92.99,183.7,464.93,Unlimited,SBD,M,
Boys,55.79,4,Ethan Packard,San Angelo Lake View,55.52,181.44,104.33,176.9,462.66,Unlimited,SBD,M,
Boys,55.79,5,Talon Cavazos,Big Spring,55.25,158.76,97.52,188.24,444.52,Unlimited,SBD,M,
Boys,55.79,6,Tomas Ramos,Snyder,54.7,176.9,88.45,156.49,421.84,Unlimited,SBD,M,
Boys,55.79,7,Edward Rocha,Perryton,55.25,167.83,86.18,161.03,415.04,Unlimited,SBD,M,
Boys,55.79,8,Josiah Cavazos,Big Spring,54.88,158.76,90.72,154.22,403.7,Unlimited,SBD,M,
Boys,55.79,9,Michael Ramirez,Big Spring,54.34,117.93,74.84,142.88,335.66,Unlimited,SBD,M,
Boys,55.79,10,Alejandro Gonzales,Seminole,55.25,124.74,65.77,145.15,335.66,Unlimited,SBD,M,
Boys,55.79,11,Gavin Hernandez,Snyder,55.7,142.88,61.23,131.54,335.66,Unlimited,SBD,M,
Boys,55.79,12,Brayden Bryant,Big Spring,54.52,122.47,74.84,117.93,315.25,Unlimited,SBD,M,
Boys,59.87,1,Angel Flores,Perryton,58.42,240.4,156.49,213.19,610.08,Unlimited,SBD,M,
Boys,59.87,2,Adrian Avalos,Snyder,58.33,206.38,133.81,213.19,553.38,Unlimited,SBD,M,
Boys,59.87,3,Carlos Parra,Dumas,59.78,192.78,106.59,199.58,498.95,Unlimited,SBD,M,
Boys,59.87,4,Sam DeSantiago,Perryton,59.24,183.7,124.74,156.49,464.93,Unlimited,SBD,M,
Boys,59.87,5,Alex Gonzales,Monahans,59.69,145.15,133.81,161.03,439.98,Unlimited,SBD,M,
Boys,59.87,6,Hunter Reneau,Borger,59.51,156.49,97.52,183.7,437.72,Unlimited,SBD,M,
Boys,59.87,7,Isael Venegas,Canyon West Plains,58.51,154.22,79.38,174.63,408.23,Unlimited,SBD,M,
Boys,59.87,8,Zaden Carrillo,Levelland,59.15,151.95,86.18,165.56,403.7,Unlimited,SBD,M,
Boys,59.87,9,Casen Moore,Monahans,58.06,136.08,97.52,138.35,371.95,Unlimited,SBD,M,
Boys,59.87,10,Landon Holcomb,Canyon Randall,59.33,138.35,83.91,140.61,362.87,Unlimited,SBD,M,
Boys,59.87,11,Noah Frausto,San Angelo Lake View,58.42,115.67,63.5,127.01,306.17,Unlimited,SBD,M,
Boys,59.87,DQ,David Haygood,Andrews,59.06,,,,,Unlimited,SBD,M,
Boys,59.87,NS,Aiden Mitchell,Perryton,,,,,,Unlimited,SBD,M,
Boys,67.13,1,Chandler Tran,Snyder,66.5,242.67,154.22,226.8,623.69,Unlimited,SBD,M,
Boys,67.13,2,Alejandro Flores,Snyder,63.14,258.55,149.69,199.58,607.81,Unlimited,SBD,M,
Boys,67.13,3,Fabian Espino,Perryton,66.5,215.46,124.74,204.12,544.31,Unlimited,SBD,M,
Boys,67.13,4,Leeland Ibarra,Fort Stockton,65.95,217.72,117.93,195.04,530.7,Unlimited,SBD,M,
Boys,67.13,5,Abel Lucero,Perryton,66.77,192.78,124.74,197.31,514.83,Unlimited,SBD,M,
Boys,67.13,6,Iram Castillo,Perryton,66.95,204.12,113.4,183.7,501.22,Unlimited,SBD,M,
Boys,67.13,7,Leo Novogradic,Andrews,65.32,192.78,117.93,188.24,498.95,Unlimited,SBD,M,
Boys,67.13,8,Erick Navarrete,Perryton,65.68,192.78,117.93,185.97,496.68,Unlimited,SBD,M,
Boys,67.13,DQ,Joel Gamino,Sweetwater,65.5,,,,,Unlimited,SBD,M,
Boys,67.13,DQ,Christian Dominguez,Fort Stockton,65.41,,,,,Unlimited,SBD,M,
Boys,67.13,DQ,Arturo Del Valle,Big Spring,64.14,,,,,Unlimited,SBD,M,
Boys,67.13,NS,Calixto Mendez,Sweetwater,,,,,,Unlimited,SBD,M,
Boys,74.84,1,Javier Martinez,Perryton,74.66,281.23,165.56,267.62,714.41,Unlimited,SBD,M,
Boys,74.84,2,Merq Saiz,Andrews,74.57,244.94,183.7,251.74,680.39,Unlimited,SBD,M,
Boys,74.84,3,Braeden Packard,San Angelo Lake View,72.76,240.4,151.95,213.19,605.55,Unlimited,SBD,M,
Boys,74.84,4,Oliver Garcia,Dumas,73.57,251.74,124.74,219.99,596.47,Unlimited,SBD,M,
Boys,74.84,5,Noah Fuentes,Snyder,70.67,213.19,170.1,176.9,560.19,Unlimited,SBD,M,
Boys,74.84,6,Makinly Espinoza,Andrews,72.76,217.72,136.08,204.12,557.92,Unlimited,SBD,M,
Boys,74.84,7,Dewey Bingham,Midland Greenwood,74.03,204.12,142.88,181.44,528.44,Unlimited,SBD,M,
Boys,74.84,8,Kaiden Miller,Canyon Randall,74.84,190.51,138.35,192.78,521.63,Unlimited,SBD,M,
Boys,74.84,9,Diego Paez,San Angelo Lake View,74.57,181.44,142.88,188.24,512.56,Unlimited,SBD,M,
Boys,74.84,10,Jace Adames,Sweetwater,74.21,176.9,133.81,199.58,510.29,Unlimited,SBD,M,
Boys,74.84,11,Shooter Coon,Dumas,71.58,217.72,117.93,170.1,505.76,Unlimited,SBD,M,
Boys,74.84,DQ,Jack Hamby,Big Spring,74.84,192.78,,,,Unlimited,SBD,M,
Boys,82.1,1,Ian Cortez,San Angelo Lake View,77.47,260.82,192.78,238.14,691.73,Unlimited,SBD,M,
Boys,82.1,2,Drayven Patton,Canyon Randall,82.1,272.16,138.35,215.46,625.96,Unlimited,SBD,M,
Boys,82.1,3,Jeremiah Orosco,Snyder,79.83,260.82,151.95,204.12,616.89,Unlimited,SBD,M,
Boys,82.1,4,Angel Becerril,Perryton,81.83,240.4,136.08,206.38,582.87,Unlimited,SBD,M,
Boys,82.1,5,Carson Barclay,Canyon Randall,81.47,229.06,111.13,226.8,566.99,Unlimited,SBD,M,
Boys,82.1,6,Tristen Taylor,Andrews,81.01,215.46,140.61,208.65,564.72,Unlimited,SBD,M,
Boys,82.1,7,Daniel Robles,Snyder,81.65,233.6,145.15,183.7,562.45,Unlimited,SBD,M,
Boys,82.1,8,Carter Sanchez,Midland Greenwood,80.65,197.31,127.01,181.44,505.76,Unlimited,SBD,M,
Boys,82.1,9,Jackson Gibbs,Levelland,80.74,188.24,104.33,204.12,496.68,Unlimited,SBD,M,
Boys,82.1,DQ,Brandon Salazar,Midland Greenwood,79.92,,,,,Unlimited,SBD,M,
Boys,82.1,DQ,Sean Wilson,Borger,81.37,208.65,136.08,,,Unlimited,SBD,M,
Boys,82.1,DQ,Eidan Loera,Dumas,79.11,,,,,Unlimited,SBD,M,
Boys,89.81,1,Dalton L'Esperance,Perryton,88.27,276.69,163.29,240.4,680.39,Unlimited,SBD,M,
Boys,89.81,2,Tyson Valenzuela,Andrews,86.64,249.48,158.76,244.94,653.17,Unlimited,SBD,M,
Boys,89.81,3,Andrew Martinez,Andrews,83.28,256.28,158.76,231.33,646.37,Unlimited,SBD,M,
Boys,89.81,4,Jadyn Natividad,Pecos,87.91,249.48,142.88,224.53,616.89,Unlimited,SBD,M,
Boys,89.81,5,Rhilar Satterfield,Canyon Randall,89.09,231.33,156.49,224.53,612.35,Unlimited,SBD,M,
Boys,89.81,6,Colin Ivey,Clint,89.27,229.06,133.81,224.53,587.4,Unlimited,SBD,M,
Boys,89.81,7,Brody Tupin,Canyon West Plains,86.82,204.12,131.54,215.46,551.11,Unlimited,SBD,M,
Boys,89.81,8,Austin Ellis,Levelland,83.46,204.12,131.54,204.12,539.77,Unlimited,SBD,M,
Boys,89.81,9,Ace Giesbrecht,Canyon West Plains,88.9,215.46,133.81,183.7,532.97,Unlimited,SBD,M,
Boys,89.81,10,Angel Sanchez,Seminole,87.82,183.7,124.74,215.46,523.9,Unlimited,SBD,M,
Boys,89.81,DQ,Connor McCrary,Andrews,88.18,299.37,,,,Unlimited,SBD,M,
Boys,89.81,DQ,Charlie Gomez,Dumas,87.91,,,,,Unlimited,SBD,M,
Boys,99.79,1,Rodolfo Delgado,Perryton,92.62,276.69,213.19,235.87,725.75,Unlimited,SBD,M,
Boys,99.79,2,Hector Lozoya,Andrews,94.8,281.23,179.17,217.72,678.12,Unlimited,SBD,M,
Boys,99.79,3,Adrian Reza,Midland Greenwood,99.79,244.94,188.24,226.8,659.98,Unlimited,SBD,M,
Boys,99.79,4,Zavian Quiroga,Dumas,98.34,242.67,181.44,233.6,657.71,Unlimited,SBD,M,
Boys,99.79,5,James Isaacson,Lubbock Trinity Christian Schools,98.97,265.35,174.63,217.72,657.71,Unlimited,SBD,M,
Boys,99.79,6,Bryan Alvarado,Dumas,97.43,265.35,156.49,199.58,621.42,Unlimited,SBD,M,
Boys,99.79,7,Julian Varela,Andrews,97.34,256.28,158.76,204.12,619.15,Unlimited,SBD,M,
Boys,99.79,8,Max Pierce,Andrews,97.98,249.48,161.03,206.38,616.89,Unlimited,SBD,M,
Boys,99.79,9,Lash Caldwell,Monahans,96.98,244.94,129.27,240.4,614.62,Unlimited,SBD,M,
Boys,99.79,10,Joe Pena,Levelland,94.62,249.48,147.42,199.58,596.47,Unlimited,SBD,M,
Boys,99.79,11,Josh Salinas,Sweetwater,96.25,222.26,149.69,222.26,594.21,Unlimited,SBD,M,
Boys,99.79,12,Cain Leyva,Monahans,92.44,229.06,163.29,195.04,587.4,Unlimited,SBD,M,
Boys,109.77,1,Keegan Ireland,Dumas,108.59,342.46,206.38,299.37,848.22,Unlimited,SBD,M,
Boys,109.77,2,Isaiah Padilla,Borger,109.23,281.23,197.31,204.12,682.66,Unlimited,SBD,M,
Boys,109.77,3,Carlos Barraza,Midland Greenwood,102.6,247.21,181.44,226.8,655.44,Unlimited,SBD,M,
Boys,109.77,4,Edgar Esparza,Snyder,107.77,265.35,181.44,208.65,655.44,Unlimited,SBD,M,
Boys,109.77,5,Evan Bustamante,Andrews,106.68,263.08,147.42,231.33,641.83,Unlimited,SBD,M,
Boys,109.77,6,Jarrett Diggs,Canyon West Plains,105.69,233.6,158.76,238.14,630.49,Unlimited,SBD,M,
Boys,109.77,7,Jacob Roberts,Andrews,106.68,247.21,151.95,226.8,625.96,Unlimited,SBD,M,
Boys,109.77,8,Luis Castellanos,Levelland,108.68,238.14,142.88,226.8,607.81,Unlimited,SBD,M,
Boys,109.77,9,Johnny Rincon,Clint,106.23,231.33,142.88,206.38,580.6,Unlimited,SBD,M,
Boys,109.77,10,Julian Mendoza,Pecos,100.43,235.87,133.81,181.44,551.11,Unlimited,SBD,M,
Boys,109.77,NS,Anthony Rivera,Monahans,,,,,,Unlimited,SBD,M,
Boys,109.77,NS,Alonzo Uranga,Monahans,,,,,,Unlimited,SBD,M,
Boys,124.74,1,Isaih Montoya,Andrews,123.83,367.41,226.8,254.01,848.22,Unlimited,SBD,M,
Boys,124.74,2,Garrett Dalton,Midland Greenwood,122.2,328.85,195.04,210.92,734.82,Unlimited,SBD,M,
Boys,124.74,3,Xavier Rangel,San Angelo Lake View,111.49,233.6,188.24,208.65,630.49,Unlimited,SBD,M,
Boys,124.74,4,Dylan Carr,Midland Greenwood,113.49,249.48,167.83,210.92,628.23,Unlimited,SBD,M,
Boys,124.74,5,Juan Jimenez,Dumas,119.66,251.74,154.22,215.46,621.42,Unlimited,SBD,M,
Boys,124.74,6,Cash Flores,Monahans,113.49,229.06,179.17,210.92,619.15,Unlimited,SBD,M,
Boys,124.74,7,Lucian Aguilar,Sweetwater,119.93,229.06,158.76,226.8,614.62,Unlimited,SBD,M,
Boys,124.74,8,Carlos Cardenas,Borger,115.3,235.87,138.35,217.72,591.94,Unlimited,SBD,M,
Boys,124.74,9,Gael Cardenas,Dumas,118.48,226.8,136.08,215.46,578.33,Unlimited,SBD,M,
Boys,124.74,10,Jordan Roberts,Big Spring,118.39,210.92,127.01,201.85,539.77,Unlimited,SBD,M,
Boys,124.74,DQ,Josiah New,Big Spring,113.22,222.26,120.2,,,Unlimited,SBD,M,
Boys,124.74,DQ,Rene Castrejon,Dumas,114.67,249.48,,,,Unlimited,SBD,M,
Boys,124.74,NS,Ruben Vasquez,Snyder,,,,,,Unlimited,SBD,M,
Boys,139.71,1,Joey Alvarez,Andrews,135.44,258.55,181.44,272.16,712.14,Unlimited,SBD,M,
Boys,139.71,2,Damian Benavidez,Canyon West Plains,133.54,276.69,174.63,226.8,678.12,Unlimited,SBD,M,
Boys,139.71,3,Mason Rivero,Pecos,133.17,294.84,174.63,192.78,662.24,Unlimited,SBD,M,
Boys,139.71,4,Ever Andujo,Perryton,125.55,274.42,142.88,190.51,607.81,Unlimited,SBD,M,
Boys,139.71,5,Nathan Martinez,Andrews,128.37,233.6,147.42,222.26,603.28,Unlimited,SBD,M,
Boys,139.71,6,Zadrian Washington,Big Spring,125.83,201.85,136.08,233.6,571.53,Unlimited,SBD,M,
Boys,139.71,7,Landry Anderson,Perryton,125.83,172.37,111.13,174.63,458.13,Unlimited,SBD,M,
Boys,139.71,8,Joshua Wills,San Angelo Lake View,127.1,158.76,124.74,142.88,426.38,Unlimited,SBD,M,
Boys,139.71,DQ,Izaya Carillo,Seminole,131.9,,,,,Unlimited,SBD,M,
Boys,139.71,DQ,Jayce Harris,Pecos,125.28,,,,,Unlimited,SBD,M,
Boys,139.71,DQ,Payton Pinkerton,Snyder,131.45,,,,,Unlimited,SBD,M,
Boys,139.71,DQ,Colten Armeida,Midland Greenwood,125.28,,,,,Unlimited,SBD,M,
Boys,139.71+,1,Abel Lopez,Sweetwater,178.81,274.42,226.8,222.26,723.48,Unlimited,SBD,M,
Boys,139.71+,2,Juan Alvarez,Perryton,147.05,303.91,161.03,224.53,689.46,Unlimited,SBD,M,
Boys,139.71+,3,Justin Forester,Borger,149.41,235.87,136.08,181.44,553.38,Unlimited,SBD,M,
Boys,139.71+,4,Tiden Temple,Dumas,148.78,190.51,145.15,183.7,519.36,Unlimited,SBD,M,
Boys,139.71+,5,Brady Matison,Midland Greenwood,146.42,147.42,92.99,133.81,374.21,Unlimited,SBD,M,
Boys,139.71+,DQ,Kaden Camacho,Midland Greenwood,142.07,195.04,,,,Unlimited,SBD,M,
Boys,139.71+,DQ,Carlos Ramirez,Pecos,147.6,,,,,Unlimited,SBD,M,
Boys,139.71+,DQ,Jae Harrison,Canyon West Plains,158.3,,,,,Unlimited,SBD,M,
